328e56a752005c1c3596135bb1a79766  ftgrid0.png
72fd777e15581e793872e20f87b5edb8  ftgrid1.png
815d46f4166b2e477673781e986b735b  ftgrid2.png
949100c77ac8f4b3209c0402f9b2aba2  ftgrid3.png
2d8333fcdccb5ec8166650088e468f7f  ftgrid4.png
98276af2852a14f8c485213857efa4d2  ftgrid5.png
